\relax 
\select@language{english}
\@writefile{toc}{\select@language{english}}
\@writefile{lof}{\select@language{english}}
\@writefile{lot}{\select@language{english}}
\@writefile{toc}{\contentsline {section}{\numberline {1}Usage}{1}}
\@writefile{toc}{\contentsline {section}{\numberline {2}Files structure}{1}}
\@writefile{toc}{\contentsline {section}{\numberline {3}Javalette Language}{1}}
\@writefile{toc}{\contentsline {subsection}{\numberline {3.1}Shift-reduce conflict}{1}}
\@writefile{toc}{\contentsline {section}{\numberline {4}Compiler}{1}}
\@writefile{toc}{\contentsline {subsection}{\numberline {4.1}Type checker}{2}}
\@writefile{toc}{\contentsline {subsubsection}{\numberline {4.1.1}Environment}{2}}
\@writefile{toc}{\contentsline {subsubsection}{\numberline {4.1.2}Checking return type}{2}}
\@writefile{toc}{\contentsline {subsubsection}{\numberline {4.1.3}Expression types}{2}}
\@writefile{toc}{\contentsline {subsection}{\numberline {4.2}Code Generator}{2}}
\@writefile{toc}{\contentsline {subsubsection}{\numberline {4.2.1}Enviroment}{3}}
\@writefile{toc}{\contentsline {subsection}{\numberline {4.3}Extensions}{3}}
\@writefile{toc}{\contentsline {subsubsection}{\numberline {4.3.1}Arrays}{3}}
\newlabel{sec:arrays}{{4.3.1}{3}}
\@writefile{toc}{\contentsline {subsubsection}{\numberline {4.3.2}For-loops}{4}}
